%!PS-Adobe-3.0 EPSF-3.0
%%DocumentNeededResources: font Helvetica
%%+ font Helvetica-Bold
%%+ font Helvetica-Oblique
%%+ font Helvetica-BoldOblique
%%+ font Symbol
%%Title: R Graphics Output
%%Creator: R Software
%%Pages: (atend)
%%BoundingBox: 0 0 426 383
%%EndComments
%%BeginProlog
/bp  { gs sRGB gs } def
% begin .ps.prolog
/gs  { gsave } bind def
/gr  { grestore } bind def
/ep  { showpage gr gr } bind def
/m   { moveto } bind def
/l  { rlineto } bind def
/np  { newpath } bind def
/cp  { closepath } bind def
/f   { fill } bind def
/o   { stroke } bind def
/c   { newpath 0 360 arc } bind def
/r   { 4 2 roll moveto 1 copy 3 -1 roll exch 0 exch rlineto 0 rlineto -1 mul 0 exch rlineto closepath } bind def
/p1  { stroke } bind def
/p2  { gsave bg fill grestore newpath } bind def
/p3  { gsave bg fill grestore stroke } bind def
/p6  { gsave bg eofill grestore newpath } bind def
/p7  { gsave bg eofill grestore stroke } bind def
/t   { 5 -2 roll moveto gsave rotate
       1 index stringwidth pop
       mul neg 0 rmoveto show grestore } bind def
/ta  { 4 -2 roll moveto gsave rotate show } bind def
/tb  { 2 -1 roll 0 rmoveto show } bind def
/cl  { grestore gsave newpath 3 index 3 index moveto 1 index
       4 -1 roll lineto  exch 1 index lineto lineto
       closepath clip newpath } bind def
/rgb { setrgbcolor } bind def
/s   { scalefont setfont } bind def
% end   .ps.prolog
/sRGB { [ /CIEBasedABC
          << /DecodeLMN
               [ { dup 0.03928 le
                        {12.92321 div}
                        {0.055 add 1.055 div 2.4 exp }
                     ifelse
                 } bind dup dup
               ]
             /MatrixLMN [0.412457 0.212673 0.019334
                         0.357576 0.715152 0.119192
                         0.180437 0.072175 0.950301]
             /WhitePoint [0.9505 1.0 1.0890]
           >>
         ] setcolorspace } bind def
/srgb { setcolor } bind def
% begin encoding
/WinAnsiEncoding [
 /.notdef /.notdef /.notdef /.notdef /.notdef /.notdef /.notdef /.notdef
 /.notdef /.notdef /.notdef /.notdef /.notdef /.notdef /.notdef /.notdef
 /.notdef /.notdef /.notdef /.notdef /.notdef /.notdef /.notdef /.notdef
 /.notdef /.notdef /.notdef /.notdef /.notdef /.notdef /.notdef /.notdef
 /space /exclam /quotedbl /numbersign /dollar /percent /ampersand /quoteright
 /parenleft /parenright /asterisk /plus /comma /minus /period /slash
 /zero /one /two /three /four /five /six /seven
 /eight /nine /colon /semicolon /less /equal /greater /question
 /at /A /B /C /D /E /F /G
 /H /I /J /K /L /M /N /O
 /P /Q /R /S /T /U /V /W
 /X /Y /Z /bracketleft /backslash /bracketright /asciicircum /underscore
 /grave /a /b /c /d /e /f /g
 /h /i /j /k /l /m /n /o
 /p /q /r /s /t /u /v /w
 /x /y /z /braceleft /bar /braceright /asciitilde /.notdef
 /Euro /.notdef /quotesinglbase /florin /quotedblbase /ellipsis /dagger /daggerdbl
 /circumflex /perthousand /Scaron /guilsinglleft /OE /.notdef /Zcaron /.notdef
 /.notdef /quoteleft /quoteright /quotedblleft /quotedblright /bullet /endash /emdash
 /tilde /trademark /scaron /guilsinglright /oe /.notdef /zcaron /Ydieresis
 /space /exclamdown /cent /sterling /currency /yen /brokenbar /section
 /dieresis /copyright /ordfeminine /guillemotleft /logicalnot /hyphen /registered /macron
 /degree /plusminus /twosuperior /threesuperior /acute /mu /paragraph /periodcentered
 /cedilla /onesuperior /ordmasculine /guillemotright /onequarter /onehalf /threequarters /questiondown
 /Agrave /Aacute /Acircumflex /Atilde /Adieresis /Aring /AE /Ccedilla
 /Egrave /Eacute /Ecircumflex /Edieresis /Igrave /Iacute /Icircumflex /Idieresis
 /Eth /Ntilde /Ograve /Oacute /Ocircumflex /Otilde /Odieresis /multiply
 /Oslash /Ugrave /Uacute /Ucircumflex /Udieresis /Yacute /Thorn /germandbls
 /agrave /aacute /acircumflex /atilde /adieresis /aring /ae /ccedilla
 /egrave /eacute /ecircumflex /edieresis /igrave /iacute /icircumflex /idieresis
 /eth /ntilde /ograve /oacute /ocircumflex /otilde /odieresis /divide
 /oslash /ugrave /uacute /ucircumflex /udieresis /yacute /thorn /ydieresis
]
 def
% end encoding
%%IncludeResource: font Helvetica
/Helvetica findfont
dup length dict begin
  {1 index /FID ne {def} {pop pop} ifelse} forall
  /Encoding WinAnsiEncoding def
  currentdict
  end
/Font1 exch definefont pop
%%IncludeResource: font Helvetica-Bold
/Helvetica-Bold findfont
dup length dict begin
  {1 index /FID ne {def} {pop pop} ifelse} forall
  /Encoding WinAnsiEncoding def
  currentdict
  end
/Font2 exch definefont pop
%%IncludeResource: font Helvetica-Oblique
/Helvetica-Oblique findfont
dup length dict begin
  {1 index /FID ne {def} {pop pop} ifelse} forall
  /Encoding WinAnsiEncoding def
  currentdict
  end
/Font3 exch definefont pop
%%IncludeResource: font Helvetica-BoldOblique
/Helvetica-BoldOblique findfont
dup length dict begin
  {1 index /FID ne {def} {pop pop} ifelse} forall
  /Encoding WinAnsiEncoding def
  currentdict
  end
/Font4 exch definefont pop
%%IncludeResource: font Symbol
/Symbol findfont
dup length dict begin
  {1 index /FID ne {def} {pop pop} ifelse} forall
  currentdict
  end
/Font5 exch definefont pop
%%EndProlog
%%Page: 1 1
bp
0.00 0.00 426.00 383.25 cl
0.00 0.00 426.00 383.25 cl
0.00 0.00 426.00 383.25 cl
0.00 0.00 426.00 383.25 cl
0.00 0.00 426.00 383.25 cl
0.00 0.00 426.00 383.25 cl
0.00 0.00 426.00 383.25 cl
0.00 0.00 426.00 383.25 cl
0.00 0.00 426.00 383.25 cl
0.00 0.00 426.00 383.25 cl
/bg { 1 1 1 srgb } def
1 1 1 srgb
1.07 setlinewidth
[] 0 setdash
1 setlinecap
1 setlinejoin
10.00 setmiterlimit
0.00 0.00 426.00 383.25 r p3
0.00 0.00 426.00 383.25 cl
0.00 0.00 426.00 383.25 cl
0.00 0.00 426.00 383.25 cl
39.90 31.35 420.52 377.77 cl
/bg { 0.9216 0.9216 0.9216 srgb } def
39.90 31.35 380.62 346.42 r p2
1 1 1 srgb
0.53 setlinewidth
[] 0 setdash
0 setlinecap
1 setlinejoin
10.00 setmiterlimit
np
39.90 75.12 m
380.62 0 l
o
np
39.90 141.84 m
380.62 0 l
o
np
39.90 208.56 m
380.62 0 l
o
np
39.90 275.28 m
380.62 0 l
o
np
39.90 342.01 m
380.62 0 l
o
np
114.87 31.35 m
0 346.42 l
o
np
197.25 31.35 m
0 346.42 l
o
np
279.64 31.35 m
0 346.42 l
o
np
362.03 31.35 m
0 346.42 l
o
1.07 setlinewidth
[] 0 setdash
np
39.90 41.76 m
380.62 0 l
o
np
39.90 108.48 m
380.62 0 l
o
np
39.90 175.20 m
380.62 0 l
o
np
39.90 241.92 m
380.62 0 l
o
np
39.90 308.65 m
380.62 0 l
o
np
39.90 375.37 m
380.62 0 l
o
np
73.67 31.35 m
0 346.42 l
o
np
156.06 31.35 m
0 346.42 l
o
np
238.45 31.35 m
0 346.42 l
o
np
320.83 31.35 m
0 346.42 l
o
np
403.22 31.35 m
0 346.42 l
o
/bg { 0 0 0 srgb } def
0 0 0 srgb
0.71 setlinewidth
[] 0 setdash
1 setlinecap
57.20 47.09 1.95 c p3
57.20 68.44 1.95 c p3
106.63 52.43 1.95 c p3
106.63 100.47 1.95 c p3
123.11 84.46 1.95 c p3
139.58 68.44 1.95 c p3
156.06 89.80 1.95 c p3
156.06 111.15 1.95 c p3
156.06 132.50 1.95 c p3
172.54 87.13 1.95 c p3
172.54 116.48 1.95 c p3
189.02 79.12 1.95 c p3
189.02 95.13 1.95 c p3
189.02 105.81 1.95 c p3
189.02 116.48 1.95 c p3
205.49 111.15 1.95 c p3
205.49 132.50 1.95 c p3
205.49 132.50 1.95 c p3
205.49 164.52 1.95 c p3
221.97 111.15 1.95 c p3
221.97 137.84 1.95 c p3
221.97 201.89 1.95 c p3
221.97 255.27 1.95 c p3
238.45 95.13 1.95 c p3
238.45 111.15 1.95 c p3
238.45 185.88 1.95 c p3
254.92 127.16 1.95 c p3
254.92 148.51 1.95 c p3
271.40 127.16 1.95 c p3
271.40 148.51 1.95 c p3
271.40 175.20 1.95 c p3
287.88 153.85 1.95 c p3
287.88 191.21 1.95 c p3
287.88 244.59 1.95 c p3
287.88 265.94 1.95 c p3
304.36 137.84 1.95 c p3
304.36 164.52 1.95 c p3
304.36 223.24 1.95 c p3
320.83 127.16 1.95 c p3
320.83 169.86 1.95 c p3
320.83 180.54 1.95 c p3
320.83 191.21 1.95 c p3
320.83 212.57 1.95 c p3
353.79 217.90 1.95 c p3
370.26 185.88 1.95 c p3
386.74 228.58 1.95 c p3
386.74 287.29 1.95 c p3
386.74 289.96 1.95 c p3
386.74 362.02 1.95 c p3
403.22 268.61 1.95 c p3
0.00 0.00 426.00 383.25 cl
0.00 0.00 426.00 383.25 cl
0.00 0.00 426.00 383.25 cl
0.00 0.00 426.00 383.25 cl
0.00 0.00 426.00 383.25 cl
0.00 0.00 426.00 383.25 cl
/Font1 findfont 9 s
0.3020 0.3020 0.3020 srgb
34.96 38.52 (0) 1 0 t
34.96 105.25 (25) 1 0 t
34.96 171.97 (50) 1 0 t
34.96 238.69 (75) 1 0 t
34.96 305.41 (100) 1 0 t
34.96 372.14 (125) 1 0 t
0.00 0.00 426.00 383.25 cl
0.00 0.00 426.00 383.25 cl
0.2000 0.2000 0.2000 srgb
1.07 setlinewidth
[] 0 setdash
0 setlinecap
1 setlinejoin
10.00 setmiterlimit
np
37.16 41.76 m
2.74 0 l
o
np
37.16 108.48 m
2.74 0 l
o
np
37.16 175.20 m
2.74 0 l
o
np
37.16 241.92 m
2.74 0 l
o
np
37.16 308.65 m
2.74 0 l
o
np
37.16 375.37 m
2.74 0 l
o
0.00 0.00 426.00 383.25 cl
0.00 0.00 426.00 383.25 cl
0.00 0.00 426.00 383.25 cl
0.00 0.00 426.00 383.25 cl
0.00 0.00 426.00 383.25 cl
0.00 0.00 426.00 383.25 cl
0.00 0.00 426.00 383.25 cl
0.00 0.00 426.00 383.25 cl
0.2000 0.2000 0.2000 srgb
1.07 setlinewidth
[] 0 setdash
0 setlinecap
1 setlinejoin
10.00 setmiterlimit
np
73.67 28.61 m
0 2.74 l
o
np
156.06 28.61 m
0 2.74 l
o
np
238.45 28.61 m
0 2.74 l
o
np
320.83 28.61 m
0 2.74 l
o
np
403.22 28.61 m
0 2.74 l
o
0.00 0.00 426.00 383.25 cl
0.00 0.00 426.00 383.25 cl
/Font1 findfont 9 s
0.3020 0.3020 0.3020 srgb
73.67 19.95 (5) .5 0 t
156.06 19.95 (10) .5 0 t
238.45 19.95 (15) .5 0 t
320.83 19.95 (20) .5 0 t
403.22 19.95 (25) .5 0 t
0.00 0.00 426.00 383.25 cl
0.00 0.00 426.00 383.25 cl
0.00 0.00 426.00 383.25 cl
0.00 0.00 426.00 383.25 cl
/Font1 findfont 11 s
0 0 0 srgb
230.21 7.67 (speed) .5 0 t
0.00 0.00 426.00 383.25 cl
0.00 0.00 426.00 383.25 cl
/Font1 findfont 11 s
0 0 0 srgb
15.57 204.56 (dist) .5 90 t
0.00 0.00 426.00 383.25 cl
0.00 0.00 426.00 383.25 cl
0.00 0.00 426.00 383.25 cl
0.00 0.00 426.00 383.25 cl
ep
%%Trailer
%%Pages: 1
%%EOF
